<define-tag pagetitle>DLA-2990-1 jackson-databind</define-tag>
<define-tag report_date>2022-5-02</define-tag>
<define-tag secrefs>CVE-2020-36518 Bug#1007109</define-tag>
<define-tag packages>jackson-databind</define-tag>
<define-tag isvulnerable>yes</define-tag>
<define-tag fixed>yes</define-tag>
<define-tag fixed-section>no</define-tag>

#use wml::debian::security

