<define-tag pagetitle>DLA-3109-1 nova</define-tag>
<define-tag report_date>2022-09-15</define-tag>
<define-tag secrefs>CVE-2019-14433 Bug#934114</define-tag>
<define-tag packages>nova</define-tag>
<define-tag isvulnerable>yes</define-tag>
<define-tag fixed>yes</define-tag>
<define-tag fixed-section>no</define-tag>

#use wml::debian::security

