<define-tag pagetitle>DSA-4873-1 squid</define-tag>
<define-tag report_date>2021-3-23</define-tag>
<define-tag secrefs>CVE-2020-25097 Bug#985068</define-tag>
<define-tag packages>squid</define-tag>
<define-tag isvulnerable>yes</define-tag>
<define-tag fixed>yes</define-tag>
<define-tag fixed-section>no</define-tag>

#use wml::debian::security



</dl>
