<define-tag pagetitle>DSA-4718-1 thunderbird</define-tag>
<define-tag report_date>2020-7-05</define-tag>
<define-tag secrefs>CVE-2020-12417 CVE-2020-12418 CVE-2020-12419 CVE-2020-12420 CVE-2020-12421</define-tag>
<define-tag packages>thunderbird</define-tag>
<define-tag isvulnerable>yes</define-tag>
<define-tag fixed>yes</define-tag>
<define-tag fixed-section>no</define-tag>

#use wml::debian::security



</dl>
