<define-tag pagetitle>DSA-042-1 gnuserv</define-tag>
<define-tag report_date>2001-03-09</define-tag>
<define-tag packages>gnuserv, xemacs21</define-tag>
<define-tag isvulnerable>yes</define-tag>
<define-tag fixed>yes</define-tag>
<define-tag secrefs>CVE-2001-0191 BID2333</define-tag>


#use wml::debian::security

<h3>Debian 2.2 (potato)</h3>
<dl>
<dt><source></dt>
<dd>
<fileurl "http://security.debian.org/dists/stable/updates/main/source/gnuserv_2.1alpha-5.1.diff.gz">
</dd>
<dd>
<fileurl "http://security.debian.org/dists/stable/updates/main/source/gnuserv_2.1alpha-5.1.dsc">
</dd>
<dd>
<fileurl "http://security.debian.org/dists/stable/updates/main/source/gnuserv_2.1alpha.orig.tar.gz">
</dd>
<dd>
<fileurl "http://security.debian.org/dists/stable/updates/main/source/xemacs21_21.1.10-5.diff.gz">
</dd>
<dd>
<fileurl "http://security.debian.org/dists/stable/updates/main/source/xemacs21_21.1.10-5.dsc">
</dd>
<dd>
<fileurl "http://security.debian.org/dists/stable/updates/main/source/xemacs21_21.1.10.orig.tar.gz">
</dd>

<dt><arch-indep></dt>
<dd>
<fileurl "http://security.debian.org/dists/stable/updates/main/binary-i386/xemacs21-support_21.1.10-5_all.deb">
</dd>
<dd>
<fileurl "http://security.debian.org/dists/stable/updates/main/binary-i386/xemacs21-supportel_21.1.10-5_all.deb">
</dd>
<dd>
<fileurl "http://security.debian.org/dists/stable/updates/main/binary-i386/xemacs21_21.1.10-5_all.deb">
</dd>

<dt>alpha:</dt>
<dd>
<fileurl "http://security.debian.org/dists/stable/updates/main/binary-alpha/gnuserv_2.1alpha-5.1_alpha.deb">
</dd>
<dd>
<fileurl "http://security.debian.org/dists/stable/updates/main/binary-alpha/xemacs21-bin_21.1.10-5_alpha.deb">
</dd>
<dd>
<fileurl "http://security.debian.org/dists/stable/updates/main/binary-alpha/xemacs21-mule-canna-wnn_21.1.10-5_alpha.deb">
</dd>
<dd>
<fileurl "http://security.debian.org/dists/stable/updates/main/binary-alpha/xemacs21-mule_21.1.10-5_alpha.deb">
</dd>
<dd>
<fileurl "http://security.debian.org/dists/stable/updates/main/binary-alpha/xemacs21-nomule_21.1.10-5_alpha.deb">
</dd>

<dt>arm:</dt>
<dd>
<fileurl "http://security.debian.org/dists/stable/updates/main/binary-arm/gnuserv_2.1alpha-5.1_arm.deb">
</dd>
<dd>
<fileurl "http://security.debian.org/dists/stable/updates/main/binary-arm/xemacs21-bin_21.1.10-5_arm.deb">
</dd>
<dd>
<fileurl "http://security.debian.org/dists/stable/updates/main/binary-arm/xemacs21-mule-canna-wnn_21.1.10-5_arm.deb">
</dd>
<dd>
<fileurl "http://security.debian.org/dists/stable/updates/main/binary-arm/xemacs21-mule_21.1.10-5_arm.deb">
</dd>
<dd>
<fileurl "http://security.debian.org/dists/stable/updates/main/binary-arm/xemacs21-nomule_21.1.10-5_arm.deb">
</dd>

<dt>i386:</dt>
<dd>
<fileurl "http://security.debian.org/dists/stable/updates/main/binary-i386/gnuserv_2.1alpha-5.1_i386.deb">
</dd>
<dd>
<fileurl "http://security.debian.org/dists/stable/updates/main/binary-i386/xemacs21-bin_21.1.10-5_i386.deb">
</dd>
<dd>
<fileurl "http://security.debian.org/dists/stable/updates/main/binary-i386/xemacs21-mule-canna-wnn_21.1.10-5_i386.deb">
</dd>
<dd>
<fileurl "http://security.debian.org/dists/stable/updates/main/binary-i386/xemacs21-mule_21.1.10-5_i386.deb">
</dd>
<dd>
<fileurl "http://security.debian.org/dists/stable/updates/main/binary-i386/xemacs21-nomule_21.1.10-5_i386.deb">
</dd>

<dt>m68k:</dt>
<dd>
<fileurl "http://security.debian.org/dists/stable/updates/main/binary-m68k/gnuserv_2.1alpha-5.1_m68k.deb">
</dd>
<dd>
<fileurl "http://security.debian.org/dists/stable/updates/main/binary-m68k/xemacs21-bin_21.1.10-5_m68k.deb">
</dd>
<dd>
<fileurl "http://security.debian.org/dists/stable/updates/main/binary-m68k/xemacs21-mule-canna-wnn_21.1.10-5_m68k.deb">
</dd>
<dd>
<fileurl "http://security.debian.org/dists/stable/updates/main/binary-m68k/xemacs21-mule_21.1.10-5_m68k.deb">
</dd>
<dd>
<fileurl "http://security.debian.org/dists/stable/updates/main/binary-m68k/xemacs21-nomule_21.1.10-5_m68k.deb">
</dd>

<dt>powerpc:</dt>
<dd>
<fileurl "http://security.debian.org/dists/stable/updates/main/binary-powerpc/gnuserv_2.1alpha-5.1_powerpc.deb">
</dd>
<dd>
<fileurl "http://security.debian.org/dists/stable/updates/main/binary-powerpc/xemacs21-bin_21.1.10-5_powerpc.deb">
</dd>
<dd>
<fileurl "http://security.debian.org/dists/stable/updates/main/binary-powerpc/xemacs21-mule-canna-wnn_21.1.10-5_powerpc.deb">
</dd>
<dd>
<fileurl "http://security.debian.org/dists/stable/updates/main/binary-powerpc/xemacs21-mule_21.1.10-5_powerpc.deb">
</dd>
<dd>
<fileurl "http://security.debian.org/dists/stable/updates/main/binary-powerpc/xemacs21-nomule_21.1.10-5_powerpc.deb">
</dd>

<dt>sparc:</dt>
<dd>
<fileurl "http://security.debian.org/dists/stable/updates/main/binary-sparc/gnuserv_2.1alpha-5.1_sparc.deb">
</dd>
<dd>
<fileurl "http://security.debian.org/dists/stable/updates/main/binary-sparc/xemacs21-bin_21.1.10-5_sparc.deb">
</dd>
<dd>
<fileurl "http://security.debian.org/dists/stable/updates/main/binary-sparc/xemacs21-mule-canna-wnn_21.1.10-5_sparc.deb">
</dd>
<dd>
<fileurl "http://security.debian.org/dists/stable/updates/main/binary-sparc/xemacs21-mule_21.1.10-5_sparc.deb">
</dd>
<dd>
<fileurl "http://security.debian.org/dists/stable/updates/main/binary-sparc/xemacs21-nomule_21.1.10-5_sparc.deb">
</dd>
</dl>

