<define-tag pagetitle>DLA-934-1 radicale</define-tag>
<define-tag report_date>2017-5-9</define-tag>
<define-tag secrefs>CVE-2017-8342</define-tag>
<define-tag packages>radicale</define-tag>
<define-tag isvulnerable>yes</define-tag>
<define-tag fixed>yes</define-tag>
<define-tag fixed-section>no</define-tag>

#use wml::debian::security

