<define-tag pagetitle>DLA-2372-1 libproxy</define-tag>
<define-tag report_date>2020-09-12</define-tag>
<define-tag secrefs>CVE-2020-25219</define-tag>
<define-tag packages>libproxy</define-tag>
<define-tag isvulnerable>yes</define-tag>
<define-tag fixed>yes</define-tag>
<define-tag fixed-section>no</define-tag>

#use wml::debian::security
