<define-tag pagetitle>DLA-2436-1 sddm</define-tag>
<define-tag report_date>2020-11-06</define-tag>
<define-tag secrefs>CVE-2020-28049</define-tag>
<define-tag packages>sddm</define-tag>
<define-tag isvulnerable>yes</define-tag>
<define-tag fixed>yes</define-tag>
<define-tag fixed-section>no</define-tag>

#use wml::debian::security
