<define-tag pagetitle>DLA-2280-1 python3.5</define-tag>
<define-tag report_date>2020-07-15</define-tag>
<define-tag secrefs>CVE-2018-20406 CVE-2018-20852 CVE-2019-5010 CVE-2019-9636 CVE-2019-9740 CVE-2019-9947 CVE-2019-9948 CVE-2019-10160 CVE-2019-16056 CVE-2019-16935 CVE-2019-18348 CVE-2020-8492 CVE-2020-14422 Bug#924072 Bug#921064 Bug#940901</define-tag>
<define-tag packages>python3.5</define-tag>
<define-tag isvulnerable>yes</define-tag>
<define-tag fixed>yes</define-tag>
<define-tag fixed-section>no</define-tag>

#use wml::debian::security

