<define-tag pagetitle>DLA-2349-1 php-horde</define-tag>
<define-tag report_date>2020-08-29</define-tag>
<define-tag secrefs>CVE-2017-16907 Bug#909739</define-tag>
<define-tag packages>php-horde</define-tag>
<define-tag isvulnerable>yes</define-tag>
<define-tag fixed>yes</define-tag>
<define-tag fixed-section>no</define-tag>

#use wml::debian::security

