<define-tag pagetitle>DLA-2448-1 firefox-esr</define-tag>
<define-tag report_date>2020-11-11</define-tag>
<define-tag secrefs>CVE-2020-26950</define-tag>
<define-tag packages>firefox-esr</define-tag>
<define-tag isvulnerable>yes</define-tag>
<define-tag fixed>yes</define-tag>
<define-tag fixed-section>no</define-tag>

#use wml::debian::security

