<define-tag pagetitle>DLA-1358-1 ruby1.9.1</define-tag>
<define-tag report_date>2018-4-23</define-tag>
<define-tag secrefs>CVE-2017-17742 CVE-2018-6914 CVE-2018-8777 CVE-2018-8778 CVE-2018-8779 CVE-2018-8780 CVE-2018-1000075 CVE-2018-1000 CVE-2018-1000077 CVE-2018-1000078</define-tag>
<define-tag packages>ruby1.9.1</define-tag>
<define-tag isvulnerable>yes</define-tag>
<define-tag fixed>yes</define-tag>
<define-tag fixed-section>no</define-tag>

#use wml::debian::security

