<define-tag pagetitle>DSA-4589-1 debian-edu-config</define-tag>
<define-tag report_date>2019-12-18</define-tag>
<define-tag secrefs>CVE-2019-3467 Bug#946797</define-tag>
<define-tag packages>debian-edu-config</define-tag>
<define-tag isvulnerable>yes</define-tag>
<define-tag fixed>yes</define-tag>
<define-tag fixed-section>no</define-tag>

#use wml::debian::security



</dl>
