<define-tag pagetitle>DSA-4415-1 passenger</define-tag>
<define-tag report_date>2019-3-24</define-tag>
<define-tag secrefs>CVE-2017-16355 Bug#884463</define-tag>
<define-tag packages>passenger</define-tag>
<define-tag isvulnerable>yes</define-tag>
<define-tag fixed>yes</define-tag>
<define-tag fixed-section>no</define-tag>

#use wml::debian::security



</dl>
