<define-tag pagetitle>DSA-5177-1 ldap-account-manager</define-tag>
<define-tag report_date>2022-7-05</define-tag>
<define-tag secrefs>CVE-2022-24851 CVE-2022-31084 CVE-2022-31085 CVE-2022-31086 CVE-2022-31087 CVE-2022-31088</define-tag>
<define-tag packages>ldap-account-manager</define-tag>
<define-tag isvulnerable>yes</define-tag>
<define-tag fixed>yes</define-tag>
<define-tag fixed-section>no</define-tag>

#use wml::debian::security



</dl>
