<define-tag pagetitle>DSA-5212-1 chromium</define-tag>
<define-tag report_date>2022-8-18</define-tag>
<define-tag secrefs>CVE-2022-2852 CVE-2022-2853 CVE-2022-2854 CVE-2022-2855 CVE-2022-2856 CVE-2022-2857 CVE-2022-2858 CVE-2022-2859 CVE-2022-2860 CVE-2022-2861 Bug#956012 Bug#1005808 Bug#1010407 Bug#1013268</define-tag>
<define-tag packages>chromium</define-tag>
<define-tag isvulnerable>yes</define-tag>
<define-tag fixed>yes</define-tag>
<define-tag fixed-section>no</define-tag>

#use wml::debian::security



</dl>
