<define-tag pagetitle>DLA-733-1 openafs</define-tag>
<define-tag report_date>2016-12-3</define-tag>
<define-tag secrefs>CVE-2016-9772</define-tag>
<define-tag packages>openafs</define-tag>
<define-tag isvulnerable>yes</define-tag>
<define-tag fixed>yes</define-tag>
<define-tag fixed-section>no</define-tag>

#use wml::debian::security

