<define-tag pagetitle>DLA-632-1 wireshark</define-tag>
<define-tag report_date>2016-9-21</define-tag>
<define-tag secrefs>CVE-2016-7176 CVE-2016-7177 CVE-2016-7178 CVE-2016-7179 CVE-2016-7180</define-tag>
<define-tag packages>wireshark</define-tag>
<define-tag isvulnerable>yes</define-tag>
<define-tag fixed>yes</define-tag>
<define-tag fixed-section>no</define-tag>

#use wml::debian::security

